.................
----------------------------------------------------------------------
Ran 17 tests in 0.112s

OK
Name             Stmts   Miss Branch BrPart  Cover   Missing
------------------------------------------------------------
Collatz.py          61      0     26      0   100%
TestCollatz.py      74      0      2      0   100%
------------------------------------------------------------
TOTAL              135      0     28      0   100%
