...................
----------------------------------------------------------------------
Ran 19 tests in 0.008s

OK
Name             Stmts   Miss Branch BrPart  Cover   Missing
------------------------------------------------------------
Collatz.py          51      0     22      0   100%
TestCollatz.py      81      0      2      0   100%
------------------------------------------------------------
TOTAL              132      0     24      0   100%
