.............
----------------------------------------------------------------------
Ran 13 tests in 1.014s

OK
Name             Stmts   Miss Branch BrPart  Cover   Missing
------------------------------------------------------------
Collatz.py          44      1     14      1    97%   48
TestCollatz.py     131      0      2      0   100%
------------------------------------------------------------
TOTAL              175      1     16      1    99%
