1 10 20
100 200 125
201 210 89
900 1000 174
1 10000 262
10000 1 262
5555 5556 130
9998 9999 92
1 2 2
69 420 144
8868 9866 260
6443 3390 262
3164 3522 199
2533 9780 262
1315 6089 238
4723 1065 238
9654 4486 262
9363 1482 262
5582 9836 262
3475 2105 217
4029 4047 158
9678 5543 262
7586 7074 239
7147 5609 262
9096 2207 262
5373 4221 215
2217 783 182
6852 7109 257
3984 6146 236
1112 9356 262
4702 8277 262
5966 1431 238
1957 1469 180
2184 6106 238
2534 6728 262
215 2133 182
3514 4861 238
1049 4500 238
7139 6732 257
8643 5320 262
3169 5837 238
1769 6085 238
8381 9701 260
150 4329 238
105 6357 262
8290 3640 262
4131 6922 262
5882 7463 262
1171 2268 183
2595 3486 217
5514 9309 262
6267 178 262
1347 7083 262
1231 3346 217
4132 763 238
1339 5637 238
1418 5721 238
9832 757 262
8653 2206 262
9936 8094 260
8853 1791 262
4254 5620 236
2449 4924 238
3565 200 217
5267 6265 262
4566 1182 238
3985 7444 262
5438 5975 236
6602 6384 244
8449 9497 260
1278 3991 238
9343 7220 260
1726 5411 238
3386 7363 262
5682 1117 238
4070 9062 262
6935 487 262
2387 1440 183
3081 5346 238
6349 4091 262
632 3303 217
1035 5222 238
4104 3495 238
8201 3411 262
4956 6024 236
5553 5007 205
9525 1566 262
550 4538 238
2365 7230 262
6384 5829 262
1549 527 182
9758 5310 262
4919 6997 262
367 9372 262
9431 751 262
3384 863 217
5520 2586 238
804 4341 238
9429 407 262
3761 819 238
9106 5085 262
9487 5905 262
2067 2399 183
4503 4641 184
1346 614 182
9308 4431 262
6683 4418 262
9338 9282 185
9701 7154 260
4662 6897 262
7935 3467 262
9054 9972 260
9879 4118 262
1704 8340 262
7383 1132 262
3628 1502 217
7627 8319 252
2974 9660 262
1467 1504 172
4653 6105 236
142 716 171
7864 2101 262
7686 6607 257
1603 7046 262
9028 8060 247
271 8485 262
5907 2677 238
4071 5796 236
2701 3148 217
7950 6256 257
6205 4624 262
8927 6674 257
9767 5461 262
6735 1893 262
3670 6412 262
6711 2164 262
8933 6757 257
7978 4639 262
3166 8732 262
8254 3617 262
4739 6120 236
5034 2368 238
1765 877 182
9385 2476 262
9208 5587 262
6474 7121 257
5653 2053 238
9517 1001 262
8545 7920 252
5699 3456 238
1459 8392 262
7923 1670 262
8354 2905 262
4787 3112 238
3293 3017 199
6549 9121 257
6737 2420 262
7935 2083 262
1970 3427 217
2916 5859 238
3823 7423 262
7002 1376 262
9528 400 262
6224 1149 262
8349 2212 262
275 7062 262
8454 1196 262
510 3180 217
3720 8389 262
5822 1299 238
3764 8382 262
9384 1356 262
941 4129 238
8612 1740 262
3626 4572 238
8284 3859 262
9233 1095 262
1143 6289 262
8948 353 262
788 7184 262
9721 4553 262
6781 4606 262
7044 5799 262
3189 4688 238
8542 1530 262
7183 4738 262
5145 9967 262
3544 2844 217
1607 2158 180
6838 2291 262
1580 9007 262
5398 7415 262
8545 517 262
9099 349 262
7387 1812 262
9062 892 262
5044 577 238
3015 8599 262
7635 2594 262
