.....................
----------------------------------------------------------------------
Ran 21 tests in 0.286s

OK
Name             Stmts   Miss Branch BrPart  Cover   Missing
------------------------------------------------------------
Collatz.py          43      0     22      0   100%
TestCollatz.py      89      0      2      0   100%
------------------------------------------------------------
TOTAL              132      0     24      0   100%