...................
----------------------------------------------------------------------
Ran 19 tests in 0.243s

OK
Name             Stmts   Miss Branch BrPart  Cover   Missing
------------------------------------------------------------
Collatz.py          23      0      8      0   100%
TestCollatz.py      83      0      2      0   100%
------------------------------------------------------------
TOTAL              106      0     10      0   100%