.............................
----------------------------------------------------------------------
Ran 29 tests in 0.074s

OK
Name             Stmts   Miss Branch BrPart  Cover   Missing
------------------------------------------------------------
Collatz.py          57      0     16      0   100%
TestCollatz.py     116      0      2      0   100%
------------------------------------------------------------
TOTAL              173      0     18      0   100%
