..........
----------------------------------------------------------------------
Ran 10 tests in 0.017s

OK
Name             Stmts   Miss Branch BrPart  Cover   Missing
------------------------------------------------------------
Collatz.py          43      0     20      0   100%
TestCollatz.py      43      0      2      0   100%
------------------------------------------------------------
TOTAL               86      0     22      0   100%
