525708 491465 470
215375 662228 509
871811 302043 525
71884 859617 525
71835 224241 386
326977 757731 509
114187 366036 443
444102 549750 470
113556 199390 383
265102 438832 449
323738 482293 449
44850 928928 525
247554 796777 509
434381 825231 509
74262 621808 470
265099 527124 470
309331 791125 509
298168 383768 441
353002 373897 410
495831 980544 525
469897 960138 525
462484 464889 338
457470 923222 525
450335 816710 509
323330 587208 470
484401 843789 525
73915 125495 354
169221 860709 525
46614 825885 509
78981 344880 443
268141 323863 407
386221 863941 525
300787 304631 340
89121 730791 509
455470 757222 509
274957 668751 509
203996 603175 470
352157 960955 525
282642 676486 509
358970 623819 470
292225 531279 470
345654 649129 509
255026 566112 470
230785 862680 525
466670 999517 525
87085 876550 525
164388 798983 509
8427 401146 443
252539 523542 470
295386 651319 509
144320 494897 449
39188 370630 443
213125 484510 449
453110 586156 470
59921 551051 470
72303 965919 525
363593 380005 423
137562 995442 525
72352 159921 383
44382 379638 443
26992 499340 449
91316 115357 354
158476 693439 509
3315 542325 470
433319 507109 444
27178 250734 443
440345 622975 470
240569 467195 449
61305 768497 509
267152 937843 525
35482 983005 525
429035 723272 509
262468 377389 441
454972 923585 525
335429 739114 509
208258 965492 525
389933 593796 470
175740 212305 373
152191 516733 470
158084 452341 449
36154 770271 509
212321 884704 525
473850 534064 470
177759 662349 509
116295 936036 525
174014 300144 443
155348 627517 509
259178 494125 449
428707 883147 525
143064 344325 443
17673 909237 525
348645 795357 509
127272 931035 525
451787 885207 525
383663 667116 509
55623 926460 525
484972 944335 525
492349 591602 470
20709 276033 443
160017 529015 470
419311 890913 525
342586 881971 525
5379 382813 443
53422 309493 443
45813 621429 470
133002 477994 449
352869 768297 509
218056 746104 509
283995 695965 509
72411 471285 449
219730 823659 509
286296 528527 470
452593 605070 470
46719 852976 525
101589 662715 509
339268 779223 509
144182 827648 509
451530 876065 525
42249 392355 443
349597 540806 470
483223 807323 509
248574 938387 525
180673 291205 443
247800 989532 525
137054 295638 443
370073 964926 525
415439 559635 470
471037 726761 509
315090 668027 509
498635 927549 525
315391 880780 525
176129 282817 443
251077 552089 470
119440 856047 525
452445 611718 470
117539 809063 509
94578 891046 525
77345 657779 509
26833 657936 509
309536 381629 441
343531 961300 525
30025 971141 525
198303 926600 525
354962 614921 470
437182 582696 470
275158 593120 470
77731 178670 383
224777 432615 449
10672 85449 351
94326 529821 470
1 999999 525
17 17 13
